…
#create an ID for each respondent padded with 4 digits 
#sprintf() is used to return a vector of strings 
#recast age as integer and remove the nonsensical figures
candy_with_id <- candy2 %>%                        
  mutate(id = sprintf("ID%04d", row_number(), 0)) %>% 
  rename(Trick_or_Treat= Are_you_going_actually_going_trick_or_treating_yourself) %>%
  mutate(Trick_or_Treat = str_to_lower(Trick_or_Treat)) %>%
  mutate(Age = as.integer(Age)) %>%
    dplyr::select(id, Age, Trick_or_Treat, everything()) %>%
  filter(!is.na(Age) & between(Age, 1, 120)) 
  
candy_with_id
```

    ## # A tibble: 5,359 x 78
    ##        id   Age Trick_or_Treat Butterfinger `100_Grand_Bar`
    ##     <chr> <int>          <chr>        <chr>           <chr>
    ##  1 ID0001    35             no          JOY            <NA>
    ##  2 ID0002    41             no          JOY             JOY
    ##  3 ID0003    33             no      DESPAIR         DESPAIR
    ##  4 ID0004    31             no          JOY             JOY
    ##  5 ID0005    30             no         <NA>             JOY
    ##  6 ID0006    38             no          JOY             JOY
    ##  7 ID0007    48             no          JOY             JOY
    ##  8 ID0008    39             no      DESPAIR             JOY
    ##  9 ID0010    54             no          JOY             JOY
    ## 10 ID0011    40             no          JOY             JOY
    ## # ... with 5,349 more rows, and 73 more variables:
    ## #   Anonymous_brown_globs_that_come_in_black_and_orange_wrappers <chr>,
    ## #   `Any_full-sized_candy_bar` <chr>, Black_Jacks <chr>, Bonkers <chr>,
    ## #   Bottle_Caps <chr>, Boxo_Raisins <chr>,
    ## #   Brach_products_not_including_candy_corn <chr>, Bubble_Gum <chr>,
    ## #   Cadbury_Creme_Eggs <chr>, Candy_Corn <chr>,
    ## #   `Vials_of_pure_high_fructose_corn_syrup__for_main-lining_into_your_vein` <chr>,
    ## #   Candy_that_is_clearly_just_the_stuff_given_out_for_free_at_restaurants <chr>,
    ## #   Chiclets <chr>, Caramellos <chr>, Snickers <chr>,
…
